<?xml version="1.0" encoding="UTF-8"?>
<gpx>
      <wpt lat="18.81050390" lon="-98.9599406">
        <time>2010-01-01T00:00:00Z</time>
      </wpt>
      <wpt lat="18.81003673" lon="-98.9591467">
        <time>2010-01-01T00:01:02Z</time>
      </wpt>
      <wpt lat="18.81135699" lon="-98.9585888">
        <time>2010-01-01T00:02:44Z</time>
      </wpt>
      <wpt lat="18.81127574" lon="-98.9574086">
        <time>2010-01-01T00:04:03Z</time>
      </wpt>
      <wpt lat="18.81101169" lon="-98.9565074">
        <time>2010-01-01T00:05:07Z</time>
      </wpt>
      <wpt lat="18.81082888" lon="-98.9559280">
        <time>2010-01-01T00:05:48Z</time>
      </wpt>
      <wpt lat="18.81030078" lon="-98.9560139">
        <time>2010-01-01T00:06:26Z</time>
      </wpt>
      <wpt lat="18.81013829" lon="-98.9555418">
        <time>2010-01-01T00:07:00Z</time>
      </wpt>
      <wpt lat="18.80831023" lon="-98.9561855">
        <time>2010-01-01T00:09:17Z</time>
      </wpt>
      <wpt lat="18.80770087" lon="-98.9549624">
        <time>2010-01-01T00:10:50Z</time>
      </wpt>
      <wpt lat="18.80920395" lon="-98.9541471">
        <time>2010-01-01T00:12:50Z</time>
      </wpt>
      <wpt lat="18.80891959" lon="-98.9535677">
        <time>2010-01-01T00:13:34Z</time>
      </wpt>
      <wpt lat="18.80993517" lon="-98.9532244">
        <time>2010-01-01T00:14:49Z</time>
      </wpt>
      <wpt lat="18.80971174" lon="-98.9519584">
        <time>2010-01-01T00:16:16Z</time>
      </wpt>
      <wpt lat="18.81062577" lon="-98.9516794">
        <time>2010-01-01T00:17:24Z</time>
      </wpt>
      <wpt lat="18.81101169" lon="-98.9527738">
        <time>2010-01-01T00:18:42Z</time>
      </wpt>
      <wpt lat="18.81322563" lon="-98.9521729">
        <time>2010-01-01T00:21:25Z</time>
      </wpt>
      <wpt lat="18.81294128" lon="-98.9510786">
        <time>2010-01-01T00:22:41Z</time>
      </wpt>
      <wpt lat="18.81387559" lon="-98.9506494">
        <time>2010-01-01T00:23:54Z</time>
      </wpt>
      <wpt lat="18.81426151" lon="-98.9517652">
        <time>2010-01-01T00:25:14Z</time>
      </wpt>
      <wpt lat="18.81458649" lon="-98.9527523">
        <time>2010-01-01T00:26:24Z</time>
      </wpt>
      <wpt lat="18.81491146" lon="-98.9540398">
        <time>2010-01-01T00:27:54Z</time>
      </wpt>
      <wpt lat="18.81519582" lon="-98.9550912">
        <time>2010-01-01T00:29:07Z</time>
      </wpt>
      <wpt lat="18.81426151" lon="-98.9554131">
        <time>2010-01-01T00:30:17Z</time>
      </wpt>
      <wpt lat="18.81399746" lon="-98.9543187">
        <time>2010-01-01T00:31:33Z</time>
      </wpt>
      <wpt lat="18.81355061" lon="-98.9531171">
        <time>2010-01-01T00:33:00Z</time>
      </wpt>
      <wpt lat="18.81145854" lon="-98.9538896">
        <time>2010-01-01T00:35:38Z</time>
      </wpt>
      <wpt lat="18.81172259" lon="-98.9549839">
        <time>2010-01-01T00:36:54Z</time>
      </wpt>
      <wpt lat="18.81182415" lon="-98.9555203">
        <time>2010-01-01T00:37:30Z</time>
      </wpt>
      <wpt lat="18.81196633" lon="-98.9561426">
        <time>2010-01-01T00:38:14Z</time>
      </wpt>
      <wpt lat="18.81229131" lon="-98.9572370">
        <time>2010-01-01T00:39:31Z</time>
      </wpt>
      <wpt lat="18.81300221" lon="-98.9570868">
        <time>2010-01-01T00:40:22Z</time>
      </wpt>
      <wpt lat="18.81346937" lon="-98.9568507">
        <time>2010-01-01T00:40:59Z</time>
      </wpt>
      <wpt lat="18.81452555" lon="-98.9565718">
        <time>2010-01-01T00:42:17Z</time>
      </wpt>
      <wpt lat="18.81511457" lon="-98.9562714">
        <time>2010-01-01T00:43:03Z</time>
      </wpt>
      <wpt lat="18.81633323" lon="-98.9559495">
        <time>2010-01-01T00:44:32Z</time>
      </wpt>
      <wpt lat="18.81610981" lon="-98.9548981">
        <time>2010-01-01T00:45:45Z</time>
      </wpt>
      <wpt lat="18.81570359" lon="-98.9538681">
        <time>2010-01-01T00:47:00Z</time>
      </wpt>
      <wpt lat="18.81627230" lon="-98.9535677">
        <time>2010-01-01T00:47:45Z</time>
      </wpt>
      <wpt lat="18.81570359" lon="-98.9523231">
        <time>2010-01-01T00:49:18Z</time>
      </wpt>
      <wpt lat="18.81535831" lon="-98.9514434">
        <time>2010-01-01T00:50:22Z</time>
      </wpt>
      <wpt lat="18.81493177" lon="-98.9504134">
        <time>2010-01-01T00:51:38Z</time>
      </wpt>
      <wpt lat="18.81444431" lon="-98.9492118">
        <time>2010-01-01T00:53:06Z</time>
      </wpt>
      <wpt lat="18.81363186" lon="-98.9494907">
        <time>2010-01-01T00:54:07Z</time>
      </wpt>
      <wpt lat="18.81271785" lon="-98.9497911">
        <time>2010-01-01T00:55:15Z</time>
      </wpt>
      <wpt lat="18.81164135" lon="-98.9501774">
        <time>2010-01-01T00:56:36Z</time>
      </wpt>
      <wpt lat="18.81119449" lon="-98.9488255">
        <time>2010-01-01T00:58:12Z</time>
      </wpt>
</gpx>

