<?xml version="1.0" encoding="UTF-8"?>
<svg width="375px" height="65px" viewBox="0 0 375 65" version="1.1" xmlns="http://www.w3.org/2000/svg" xmlns:xlink="http://www.w3.org/1999/xlink">
    <!-- Generator: Sketch 51.2 (57519) - http://www.bohemiancoding.com/sketch -->
    <title>Rectangle 4</title>
    <desc>Created with Sketch.</desc>
    <defs>
        <linearGradient x1="50%" y1="100%" x2="50%" y2="-77.4018159%" id="linearGradient-1">
            <stop stop-color="#FFFFFF" offset="0%"></stop>
            <stop stop-color="#FFFFFF" offset="5.75619167%"></stop>
            <stop stop-color="#FFFFFF" stop-opacity="0.942000679" offset="21.7604963%"></stop>
            <stop stop-color="#FFFFFF" stop-opacity="0" offset="100%"></stop>
        </linearGradient>
    </defs>
    <g id="Train" stroke="none" stroke-width="1" fill="none" fill-rule="evenodd">
        <g id="MainSIN+NoTickets" transform="translate(0.000000, -747.000000)" fill="url(#linearGradient-1)">
            <rect id="Rectangle-4" x="0" y="747" width="375" height="65"></rect>
        </g>
    </g>
</svg>