<?xml version="1.0" encoding="UTF-8"?>
<svg width="12px" height="55px" viewBox="0 0 12 55" version="1.1" xmlns="http://www.w3.org/2000/svg" xmlns:xlink="http://www.w3.org/1999/xlink">
    <!-- Generator: Sketch 51.2 (57519) - http://www.bohemiancoding.com/sketch -->
    <title>IconsFromTo</title>
    <desc>Created with Sketch.</desc>
    <defs>
        <path d="M4.995,44 C2.235,44 0,46.24 0,49 C0,51.76 2.235,54 4.995,54 C7.76,54 10,51.76 10,49 C10,46.24 7.76,44 4.995,44 Z M5,53 C2.79,53 1,51.21 1,49 C1,46.79 2.79,45 5,45 C7.21,45 9,46.79 9,49 C9,51.21 7.21,53 5,53 Z M5.25,46.5 L4.5,46.5 L4.5,49.5 L7.125,51.075 L7.5,50.46 L5.25,49.125 L5.25,46.5 Z" id="path-1"></path>
        <path d="M5,0 C2.23571429,0 0,2.191 0,4.9 C0,8.575 5,14 5,14 C5,14 10,8.575 10,4.9 C10,2.191 7.76428571,0 5,0 Z M1.42857143,4.9 C1.42857143,2.968 3.02857143,1.4 5,1.4 C6.97142857,1.4 8.57142857,2.968 8.57142857,4.9 C8.57142857,6.916 6.51428571,9.933 5,11.816 C3.51428571,9.947 1.42857143,6.895 1.42857143,4.9 Z M5,3.15 C4.01377723,3.15 3.21428571,3.93350169 3.21428571,4.9 C3.21428571,5.86649831 4.01377723,6.65 5,6.65 C5.63797428,6.65000001 6.22748682,6.3164519 6.54647397,5.77500001 C6.86546111,5.23354812 6.86546111,4.56645188 6.54647397,4.02499999 C6.22748682,3.4835481 5.63797428,3.14999999 5,3.15 Z" id="path-3"></path>
    </defs>
    <g id="Train" stroke="none" stroke-width="1" fill="none" fill-rule="evenodd">
        <g id="MainSIN+GotTickets" transform="translate(-49.000000, -254.000000)">
            <g id="Group" transform="translate(20.000000, 170.000000)">
                <g id="Group-39">
                    <g id="Group-38" transform="translate(30.000000, 84.000000)">
                        <g id="IconsFromTo" transform="translate(0.000000, 1.000000)">
                            <path d="M5,19 L5,44" id="Dots" stroke="#283C50" opacity="0.5" stroke-linecap="round" stroke-linejoin="bevel" stroke-dasharray="1,4"></path>
                            <mask id="mask-2" fill="white">
                                <use xlink:href="#path-1"></use>
                            </mask>
                            <use id="Delay" fill="#283C50" fill-rule="nonzero" xlink:href="#path-1"></use>
                            <mask id="mask-4" fill="white">
                                <use xlink:href="#path-3"></use>
                            </mask>
                            <use id="Location" stroke="#FFFFFF" stroke-width="0.3" fill="#283C50" fill-rule="nonzero" xlink:href="#path-3"></use>
                        </g>
                    </g>
                </g>
            </g>
        </g>
    </g>
</svg>