<?xml version="1.0" encoding="UTF-8"?>
<svg width="12px" height="15px" viewBox="0 0 12 15" version="1.1" xmlns="http://www.w3.org/2000/svg" xmlns:xlink="http://www.w3.org/1999/xlink">
    <!-- Generator: Sketch 51.2 (57519) - http://www.bohemiancoding.com/sketch -->
    <title>Location</title>
    <desc>Created with Sketch.</desc>
    <defs>
        <path d="M5,0.2 C2.23571429,0.2 0,2.391 0,5.1 C0,8.775 5,14.2 5,14.2 C5,14.2 10,8.775 10,5.1 C10,2.391 7.76428571,0.2 5,0.2 Z M1.42857143,5.1 C1.42857143,3.168 3.02857143,1.6 5,1.6 C6.97142857,1.6 8.57142857,3.168 8.57142857,5.1 C8.57142857,7.116 6.51428571,10.133 5,12.016 C3.51428571,10.147 1.42857143,7.095 1.42857143,5.1 Z M5,3.35 C4.01377723,3.35 3.21428571,4.13350169 3.21428571,5.1 C3.21428571,6.06649831 4.01377723,6.85 5,6.85 C5.63797428,6.85000001 6.22748682,6.5164519 6.54647397,5.97500001 C6.86546111,5.43354812 6.86546111,4.76645188 6.54647397,4.22499999 C6.22748682,3.6835481 5.63797428,3.34999999 5,3.35 Z" id="path-1"></path>
    </defs>
    <g id="Train" stroke="none" stroke-width="1" fill="none" fill-rule="evenodd">
        <g id="MainSIN+NoTickets" transform="translate(-34.000000, -459.000000)">
            <g id="ClaimCard" transform="translate(20.000000, 444.000000)">
                <g id="Group-25" transform="translate(15.000000, 14.000000)">
                    <g id="IconsFromTo" transform="translate(0.000000, 1.000000)">
                        <mask id="mask-2" fill="white">
                            <use xlink:href="#path-1"></use>
                        </mask>
                        <use id="Location" stroke="#FFFFFF" stroke-width="0.3" fill="#283C50" fill-rule="nonzero" xlink:href="#path-1"></use>
                    </g>
                </g>
            </g>
        </g>
    </g>
</svg>